{
  "data": [
    {
      "id": "192.0.2.44gateway.target-example.com",
      "type": "resolution",
      "links": {
        "self": "https://www.virustotal.com/api/v3/resolutions/192.0.2.44gateway.target-example.com"
      },
      "attributes": {
        "date": 1771100000,
        "host_name": "gateway.target-example.com",
        "ip_address_last_analysis_stats": {
          "malicious": 1,
          "suspicious": 2,
          "undetected": 52,
          "harmless": 21,
          "timeout": 0
        },
        "resolver": "VirusTotal",
        "ip_address": "192.0.2.44",
        "host_name_last_analysis_stats": {
          "malicious": 0,
          "suspicious": 0,
          "undetected": 49,
          "harmless": 19,
          "timeout": 0
        }
      }
    },
    {
      "id": "192.0.2.44vpn.target-example.com",
      "type": "resolution",
      "links": {
        "self": "https://www.virustotal.com/api/v3/resolutions/192.0.2.44vpn.target-example.com"
      },
      "attributes": {
        "date": 1771100100,
        "host_name": "vpn.target-example.com",
        "ip_address_last_analysis_stats": {
          "malicious": 1,
          "suspicious": 2,
          "undetected": 52,
          "harmless": 21,
          "timeout": 0
        },
        "resolver": "VirusTotal",
        "ip_address": "192.0.2.44",
        "host_name_last_analysis_stats": {
          "malicious": 2,
          "suspicious": 1,
          "undetected": 39,
          "harmless": 14,
          "timeout": 0
        }
      }
    }
  ],
  "meta": {
    "count": 4,
    "cursor": "synthetic-resolutions-cursor-page-1"
  },
  "links": {
    "self": "https://www.virustotal.com/api/v3/ip_addresses/192.0.2.44/resolutions?limit=40",
    "next": "SERVER_URL/api/v3/ip_addresses/192.0.2.44/resolutions?limit=40&cursor=synthetic-resolutions-cursor-page-2"
  }
}
